<?xml version="1.0" encoding="UTF-8"?>
<svg width="220px" height="220px" viewBox="0 0 220 220" version="1.1" xmlns="http://www.w3.org/2000/svg" xmlns:xlink="http://www.w3.org/1999/xlink">
    <!-- Generator: Sketch 55.2 (78181) - https://sketchapp.com -->
    <title>003-makeup</title>
    <desc>Created with Sketch.</desc>
    <g id="Page-1" stroke="none" stroke-width="1" fill="none" fill-rule="evenodd">
        <g id="003-makeup" fill="#3E3E3E" fill-rule="nonzero">
            <path d="M147.206,102.657 L114.039,133.016 L86.964,105.941 L117.323,72.774 L147.206,102.657 Z M81.557,111.848 L3.435,197.195 C-1.358,202.611 -1.106,210.859 4.007,215.972 C6.596,218.561 10.038,219.987 13.701,219.987 C17.05,219.987 20.275,218.764 22.834,216.5 L108.131,138.423 L81.557,111.848 Z M211.809,50.894 L169.085,8.17 C163.819,2.905 157.187,0.005 150.407,0.005 C140.474,0.005 132.658,6.394 130.958,15.902 L121.979,66.116 L153.863,98 L204.077,89.021 C211.383,87.715 216.823,82.982 219.004,76.036 C221.649,67.612 218.892,57.978 211.809,50.894 Z" id="Shape"></path>
        </g>
    </g>
</svg>