<?xml version="1.0" encoding="UTF-8"?>
<svg width="512px" height="512px" viewBox="0 0 512 512" version="1.1" xmlns="http://www.w3.org/2000/svg" xmlns:xlink="http://www.w3.org/1999/xlink">
    <!-- Generator: Sketch 55.2 (78181) - https://sketchapp.com -->
    <title>coffee-icon</title>
    <desc>Created with Sketch.</desc>
    <g id="Page-1" stroke="none" stroke-width="1" fill="none" fill-rule="evenodd">
        <g id="coffee-icon" fill="#4C4C4C" fill-rule="nonzero">
            <path d="M502,206.5 L420,206.5 L420,185.333 C420,179.81 415.522,175.333 410,175.333 L194,175.333 C188.478,175.333 184,179.81 184,185.333 C184,190.856 188.478,195.333 194,195.333 L400,195.333 L400,271.999 C400,339.347 364.043,401.941 305.982,435.999 L114.018,435.999 C55.957,401.942 20,339.347 20,272 L20,195.334 L87,195.334 C92.522,195.334 97,190.857 97,185.334 C97,179.811 92.522,175.333 87,175.333 L10,175.333 C4.478,175.333 0,179.811 0,185.334 L0,272 C0,309.8 10.16,346.864 29.382,379.183 C42.345,400.98 59.165,420.228 78.862,436 L10,436 C4.478,436 0,440.477 0,446 C0,482.393 29.607,512 66,512 L378,512 C414.393,512 444,482.393 444,446 C444,440.477 439.522,436 434,436 L341.138,436 C359.267,421.484 374.95,404.017 387.44,384.333 L415.667,384.333 C468.785,384.333 512,341.118 512,288 L512,216.5 C512,210.977 507.523,206.5 502,206.5 Z M422.905,456 C418.327,476.572 399.931,492 378,492 L66,492 C44.069,492 25.674,476.572 21.095,456 L111.339,456 L308.661,456 L422.905,456 Z M420,272 L420,266.5 L452,266.5 L452,288 C452,308.034 435.701,324.333 415.667,324.333 L413.396,324.333 C417.761,307.327 420,289.745 420,272 Z M492,288 C492,330.09 457.757,364.333 415.667,364.333 L398.647,364.333 C401.84,357.812 404.692,351.136 407.184,344.333 L415.667,344.333 C446.73,344.333 472,319.062 472,288 L472,256.5 C472,250.977 467.522,246.5 462,246.5 L420,246.5 L420,226.5 L492,226.5 L492,288 Z" id="Shape"></path>
            <path d="M219.549,55.343 L214.346,48.81 C206.708,39.222 206.697,25.819 214.319,16.217 C217.753,11.891 217.029,5.601 212.703,2.168 C208.376,-1.267 202.087,-0.542 198.653,3.784 C185.211,20.72 185.231,44.359 198.702,61.271 L203.905,67.804 C213.886,80.334 213.901,97.849 203.941,110.398 L198.609,117.116 C195.175,121.442 195.899,127.732 200.225,131.165 C202.064,132.624 204.257,133.333 206.435,133.333 C209.381,133.333 212.3,132.037 214.275,129.549 L219.607,122.831 C235.387,102.949 235.364,75.197 219.549,55.343 Z" id="Path"></path>
            <path d="M274.978,77.827 L269.775,71.295 C262.137,61.706 262.126,48.303 269.748,38.701 C273.182,34.375 272.458,28.085 268.132,24.652 C263.805,21.217 257.516,21.942 254.082,26.268 C240.64,43.204 240.66,66.843 254.131,83.756 L259.334,90.289 C269.314,102.82 269.329,120.336 259.369,132.884 L254.038,139.601 C250.604,143.927 251.328,150.217 255.654,153.65 C257.493,155.109 259.686,155.817 261.864,155.817 C264.81,155.817 267.73,154.52 269.704,152.033 L275.034,145.316 C290.815,125.435 290.792,97.683 274.978,77.827 Z" id="Path"></path>
            <path d="M164.12,77.828 L158.917,71.296 C151.279,61.708 151.268,48.304 158.889,38.702 C162.323,34.376 161.599,28.086 157.273,24.652 C152.946,21.218 146.657,21.944 143.223,26.268 C129.782,43.204 129.802,66.844 143.273,83.756 L148.476,90.289 C158.456,102.82 158.471,120.336 148.512,132.883 L143.18,139.6 C139.746,143.926 140.469,150.216 144.795,153.65 C146.634,155.109 148.826,155.818 151.005,155.818 C153.951,155.818 156.87,154.522 158.844,152.035 L164.177,145.317 C179.957,125.436 179.934,97.684 164.12,77.828 Z" id="Path"></path>
            <path d="M150.28,178.26 C148.42,176.4 145.84,175.33 143.21,175.33 C140.58,175.33 138,176.4 136.14,178.26 C134.281,180.13 133.21,182.7 133.21,185.33 C133.21,187.96 134.28,190.54 136.14,192.41 C138,194.27 140.58,195.33 143.21,195.33 C145.84,195.33 148.42,194.27 150.28,192.41 C152.149,190.54 153.21,187.97 153.21,185.33 C153.21,182.7 152.149,180.12 150.28,178.26 Z" id="Path"></path>
            <path d="M362,262 C356.478,262 352,266.477 352,272 C352,309.119 336.944,345.598 310.692,372.083 C306.804,376.005 306.833,382.337 310.755,386.225 C312.705,388.158 315.25,389.123 317.795,389.123 C320.369,389.123 322.943,388.134 324.898,386.161 C354.832,355.961 372,314.351 372,272 C372,266.477 367.522,262 362,262 Z" id="Path"></path>
            <path d="M293.885,399.225 C291.171,394.414 285.072,392.715 280.262,395.428 L280.034,395.557 C275.223,398.271 273.524,404.37 276.237,409.18 C278.075,412.438 281.464,414.269 284.956,414.269 C286.62,414.269 288.308,413.852 289.86,412.977 L290.088,412.848 C294.899,410.134 296.598,404.035 293.885,399.225 Z" id="Path"></path>
        </g>
    </g>
</svg>