<?xml version="1.0" encoding="UTF-8"?>
<svg width="51px" height="52px" viewBox="0 0 51 52" version="1.1" xmlns="http://www.w3.org/2000/svg" xmlns:xlink="http://www.w3.org/1999/xlink">
    <!-- Generator: Sketch 55.2 (78181) - https://sketchapp.com -->
    <title>filter-icon</title>
    <desc>Created with Sketch.</desc>
    <g id="Page-1" stroke="none" stroke-width="1" fill="none" fill-rule="evenodd">
        <g id="filter-icon" fill="#4B8EDF" fill-rule="nonzero">
            <path d="M50.957,7 C50.957,2.404 38.38,0 25.957,0 C13.534,0 0.957,2.404 0.957,7 C0.957,8.042 1.609,8.97 2.753,9.784 L19.957,33.326 L19.957,50.851 L20.019,51.913 L21.019,51.913 L21.476,51.895 L31.957,41.414 L31.957,33.326 L49.16,9.784 C50.305,8.97 50.957,8.042 50.957,7 Z M25.957,2 C39.997,2 48.957,4.961 48.957,7 C48.957,9.039 39.997,12 25.957,12 C11.917,12 2.957,9.039 2.957,7 C2.957,4.961 11.917,2 25.957,2 Z" id="Shape"></path>
        </g>
    </g>
</svg>