<?xml version="1.0" encoding="UTF-8"?>
<svg width="513px" height="512px" viewBox="0 0 513 512" version="1.1" xmlns="http://www.w3.org/2000/svg" xmlns:xlink="http://www.w3.org/1999/xlink">
    <!-- Generator: Sketch 55.2 (78181) - https://sketchapp.com -->
    <title>gym-icon</title>
    <desc>Created with Sketch.</desc>
    <g id="Page-1" stroke="none" stroke-width="1" fill="none" fill-rule="evenodd">
        <g id="gym-icon" fill="#4B8EDF" fill-rule="nonzero">
            <path d="M173.300781,447.929688 C175.929688,447.929688 178.507812,446.859375 180.367188,445 C182.226562,443.140625 183.300781,440.558594 183.300781,437.929688 C183.300781,435.300781 182.230469,432.71875 180.367188,430.859375 C178.507812,429 175.929688,427.929688 173.300781,427.929688 C170.667969,427.929688 168.089844,429 166.230469,430.859375 C164.371094,432.71875 163.300781,435.300781 163.300781,437.929688 C163.300781,440.558594 164.367188,443.140625 166.230469,445 C168.089844,446.859375 170.671875,447.929688 173.300781,447.929688 Z" id="Path"></path>
            <path d="M502.46875,492 L454.363281,492 L436.085938,459.328125 L436.085938,370.195312 C436.085938,349.175781 422.59375,330.863281 402.515625,324.632812 L325.800781,300.820312 L325.800781,219.59375 C325.800781,212.046875 323.570312,204.941406 319.660156,198.972656 C341.429688,191.464844 357.117188,170.785156 357.117188,146.5 C357.117188,117.566406 334.855469,93.742188 306.5625,91.230469 L306.5625,50.0625 C306.5625,22.457031 284.105469,0 256.5,0 C250.976562,0 246.5,4.476562 246.5,10 L246.5,89.816406 C246.453125,89.816406 246.410156,89.808594 246.363281,89.808594 C237.664062,89.632812 229.4375,92.886719 223.179688,98.921875 C216.921875,104.957031 213.386719,113.070312 213.230469,121.761719 C212.902344,139.707031 227.238281,154.570312 245.183594,154.898438 L245.765625,154.910156 C244.027344,171.265625 239.183594,187.429688 231.46875,202.304688 C228.71875,207.609375 227.261719,213.585938 227.261719,219.59375 L227.261719,305.601562 L203.171875,349.007812 L74.109375,430.148438 C61.832031,437.867188 54.5,451.132812 54.5,465.636719 L54.5,492 L10.5,492 C4.976562,492 0.5,496.476562 0.5,502 C0.5,507.523438 4.976562,512 10.5,512 L502.472656,512 C507.992188,512 512.472656,507.523438 512.472656,502 C512.472656,496.476562 507.992188,492 502.46875,492 Z M337.117188,146.5 C337.117188,164.398438 323.804688,179.242188 306.5625,181.65625 L306.5625,111.34375 C323.804688,113.757812 337.117188,128.601562 337.117188,146.5 Z M266.5,21.710938 C278.175781,25.839844 286.5625,36.988281 286.5625,50.0625 L286.5625,193.289062 C286.5625,197.648438 289.382812,201.503906 293.539062,202.820312 C300.871094,205.148438 305.800781,211.890625 305.800781,219.59375 L305.800781,298.191406 L247.265625,298.191406 L247.265625,219.59375 C247.265625,216.738281 247.925781,214.019531 249.222656,211.511719 C260.527344,189.71875 266.5,165.480469 266.5,141.410156 L266.5,21.710938 Z M236.738281,131.0625 C234.414062,128.652344 233.164062,125.476562 233.226562,122.125 C233.285156,118.773438 234.648438,115.644531 237.0625,113.316406 C239.417969,111.046875 242.503906,109.800781 245.765625,109.800781 C245.90625,109.800781 246.046875,109.804688 246.1875,109.804688 C246.292969,109.804688 246.394531,109.792969 246.5,109.789062 L246.5,134.917969 L245.546875,134.902344 C242.195312,134.839844 239.066406,133.476562 236.738281,131.0625 Z M151.773438,448.507812 C149.339844,443.550781 143.347656,441.503906 138.386719,443.941406 L94.082031,465.703125 C93.421875,466.027344 92.800781,466.425781 92.226562,466.886719 L74.5,481.132812 L74.5,465.636719 C74.5,458.054688 78.332031,451.117188 84.753906,447.078125 L215.988281,364.570312 C217.414062,363.675781 218.59375,362.429688 219.410156,360.960938 L243.148438,318.191406 L297.117188,318.191406 L268.230469,361.550781 C256.171875,379.648438 239.480469,394.28125 219.960938,403.867188 L199.257812,414.039062 C194.300781,416.472656 192.257812,422.464844 194.691406,427.421875 C197.128906,432.378906 203.121094,434.425781 208.078125,431.988281 L228.777344,421.820312 C251.464844,410.675781 270.859375,393.671875 284.875,372.636719 L292.726562,360.851562 L374.5,390.972656 L374.5,483.414062 C374.5,486.40625 374.960938,489.289062 375.816406,492 L92.902344,492 L103.894531,483.164062 L147.207031,461.890625 C152.164062,459.457031 154.207031,453.464844 151.773438,448.507812 L151.773438,448.507812 Z M403.085938,492 C398.351562,492 394.5,488.148438 394.5,483.414062 L394.5,384 C394.5,379.8125 391.886719,376.0625 387.957031,374.617188 L304.132812,343.738281 L315.011719,327.40625 L319.976562,319.957031 L396.589844,343.730469 C408.25,347.351562 416.085938,357.984375 416.085938,370.195312 L416.085938,461.9375 C416.085938,463.648438 416.523438,465.328125 417.355469,466.820312 L431.445312,492 L403.085938,492 Z" id="Shape"></path>
        </g>
    </g>
</svg>