<?xml version="1.0" encoding="UTF-8"?>
<svg width="512px" height="446px" viewBox="0 0 512 446" version="1.1" xmlns="http://www.w3.org/2000/svg" xmlns:xlink="http://www.w3.org/1999/xlink">
    <!-- Generator: Sketch 55.2 (78181) - https://sketchapp.com -->
    <title>002-heartbeat</title>
    <desc>Created with Sketch.</desc>
    <g id="Page-1" stroke="none" stroke-width="1" fill="none" fill-rule="evenodd">
        <g id="002-heartbeat" fill="#3E3E3E" fill-rule="nonzero">
            <path d="M376,0 C315.341,0 276.405,42.012 256,79.849 C235.595,42.011 196.659,0 136,0 C59.037,0 0,62.446 0,145.268 C0,166.878 4.327,186.829 12.294,206 L126.728,206 L152.582,154.291 C157.68,144.125 174.32,144.125 179.418,154.291 L226,247.456 L242.582,214.292 C247.68,204.126 264.32,204.126 269.418,214.292 L286,247.456 L332.582,154.292 C337.68,144.126 354.32,144.126 359.418,154.292 L385.272,206 L499.706,206 C507.673,186.829 512,166.878 512,145.268 C512,62.446 452.963,0 376,0 Z" id="Path"></path>
            <path d="M376,236 C370.316,236 365.131,232.792 362.582,227.709 L346,194.545 L299.418,287.709 C296.869,292.792 291.684,296 286,296 C280.316,296 275.131,292.792 272.582,287.709 L256,254.545 L239.418,287.709 C234.32,297.875 217.68,297.875 212.582,287.709 L166,194.545 L149.418,227.709 C146.869,232.792 141.684,236 136,236 L28.037,236 C58.91,284.574 114.511,330.713 184.061,389.413 C203.587,405.892 224.359,423.427 246.17,442.338 C248.997,444.784 252.498,446 255.999,446 C259.5,446 263.001,444.784 265.828,442.338 C287.64,423.427 308.411,405.893 327.937,389.413 C397.488,330.713 453.088,284.574 483.961,236 L376,236 Z" id="Path"></path>
        </g>
    </g>
</svg>