<?xml version="1.0" encoding="UTF-8"?>
<svg width="50px" height="50px" viewBox="0 0 50 50" version="1.1" xmlns="http://www.w3.org/2000/svg" xmlns:xlink="http://www.w3.org/1999/xlink">
    <!-- Generator: Sketch 55.2 (78181) - https://sketchapp.com -->
    <title>star-icon</title>
    <desc>Created with Sketch.</desc>
    <g id="Page-1" stroke="none" stroke-width="1" fill="none" fill-rule="evenodd">
        <g id="star-icon" fill="#FFFFFF" fill-rule="nonzero">
            <path d="M24.827,0 C11.138,0 0,11.137 0,24.826 C0,38.514 11.137,49.654 24.826,49.654 C38.514,49.654 49.653,38.514 49.653,24.826 C49.653,11.137 38.516,0 24.827,0 Z M38.543,23.011 L38.543,23.011 L31.355,28.212 L34.124,36.672 C34.168,36.805 34.191,36.945 34.191,37.089 C34.191,37.828 33.591,38.428 32.852,38.428 C32.559,38.428 32.29,38.334 32.07,38.176 L24.826,32.936 L17.583,38.176 C17.363,38.334 17.093,38.428 16.8,38.428 C16.06,38.428 15.461,37.829 15.461,37.089 C15.461,36.943 15.485,36.805 15.529,36.672 L18.298,28.212 L11.111,23.012 L11.111,23.011 C10.775,22.769 10.557,22.374 10.557,21.928 C10.557,21.189 11.155,20.591 11.895,20.591 L20.792,20.591 L23.547,12.17 C23.715,11.623 24.224,11.225 24.827,11.225 C25.43,11.225 25.939,11.623 26.107,12.17 L28.861,20.591 L37.757,20.591 C38.496,20.591 39.0950068,21.189 39.0950068,21.928 C39.096,22.374 38.878,22.769 38.543,23.011 Z" id="Shape"></path>
        </g>
    </g>
</svg>